…
Each EIGENSTRAT data set has three components: a trio of `ind/snp/geno`
files, which can be loaded with `read_*()` functions. These are not used
very often, but are *very* useful for filtering, processing data,
troubleshooting, etc.

-   `ind` file:

``` r
ind <- read_ind(data)
ind
```

    ## # A tibble: 47 x 3
    ##    id           sex   label        
    ##    <chr>        <chr> <chr>        
    ##  1 Bichon       M     Bichon       
    ##  2 KK1          M     Kotias       
    ##  3 SATP         M     Satsurblia   
    ##  4 Motala12     M     Motala12     
    ##  5 I9030        M     Villabruna   
    ##  6 I0062        M     Vestonice16  
    ##  7 I0876        M     Kostenki14   
    ##  8 I0869.damage F     Ostuni1      
    ##  9 I0907.damage F     ElMiron      
    ## 10 I9050.damage F     AfontovaGora3
    ## # … with 37 more rows

``` r
nrow(ind)
```

    ## [1] 47

-   `snp` file:

``` r
snp <- read_snp(data)
snp
```

    ## # A tibble: 2,144,502 x 6
    ##    id            chrom     gen    pos ref   alt  
    ##    <chr>         <chr>   <dbl>  <int> <chr> <chr>
    ##  1 Affx-34462167 1     0.00567 567137 T     C    
    ##  2 rs3094315     1     0.00753 752566 G     A    
    ##  3 rs12562034    1     0.00768 768448 A     G    
    ##  4 rs12124819    1     0.00776 776546 A     G    
    ##  5 1_777122      1     0.00777 777122 A     T    
    ##  6 1_832756      1     0.00833 832756 T     G    
    ##  7 rs28765502    1     0.00833 832918 T     C    
    ##  8 1_834832      1     0.00835 834832 G     C    
    ##  9 1_838555      1     0.00839 838555 C     A    
    ## 10 1_838931      1     0.00839 838931 A     C    
    ## # … with 2,144,492 more rows

``` r
nrow(snp) / 1e6 # how many millions of sites we have genotyped?
```

    ## [1] 2.144502

-   `geno` file:

``` r
geno <- read_geno(data)
geno
```

    ## # A tibble: 2,144,502 x 47
    ##    Bichon   KK1  SATP Motala12 I9030 I0062 I0876 I0869.damage I0907.damage
    ##     <int> <int> <int>    <int> <int> <int> <int>        <int>        <int>
    ##  1      0     0     0        0    NA    NA    NA           NA           NA
    ##  2      0     0     0        0     0     0     0            2            0
    ##  3     NA    NA    NA        0     0    NA     0           NA           NA
    ##  4      2     0     2        2    NA    NA     2           NA            2
    ##  5      0     0    NA        0    NA    NA    NA           NA           NA
    ##  6      2     0     2        0    NA     2    NA           NA           NA
    ##  7      2     2     2        0     2    NA     2           NA           NA
    ##  8      2     2     2        2    NA     0     2           NA            0
    ##  9      2     2     2        2    NA    NA     0           NA           NA
    ## 10      2     2    NA        2     2    NA     0           NA           NA
    ## # … with 2,144,492 more rows, and 38 more variables: I9050.damage <int>,
    ## #   Ranchot.damage <int>, Q116 <int>, Rochedane <int>, I1577 <int>, MA1 <int>,
    ## #   KO1 <int>, LaBrana1 <int>, I0061 <int>, Loschbour <int>, Ust_Ishim <int>,
    ## #   Stuttgart <int>, Estonian <int>, Mbuti <int>, Korean <int>, Yoruba <int>,
    ## #   Hezhen <int>, Orcadian <int>, Japanese <int>, Saharawi <int>, Tujia <int>,
    ## #   Greek <int>, Russian <int>, Dai <int>, Han <int>, Dinka <int>, Czech <int>,
    ## #   Icelandic <int>, Uygur <int>, Burmese <int>, Tuscan <int>, Papuan <int>,
    ## #   Spanish <int>, Adygei <int>, French <int>, Chimp <int>, Vindija <int>,
    ## #   Altai <int>
…
Now we can estimate the proportion of Neanderthal ancestry in all
samples at once:

``` r
neand_all <- f4ratio(X = samples$name, A = "Altai", B = "Vindija", C = "Yoruba", O = "Chimp", data = data)
neand_all
```

    ## # A tibble: 44 x 8
    ##    A     B       X             C      O      alpha  stderr Zscore
    ##    <chr> <chr>   <chr>         <chr>  <chr>  <dbl>   <dbl>  <dbl>
    ##  1 Altai Vindija UstIshim      Yoruba Chimp 0.0208 0.00446   4.65
    ##  2 Altai Vindija Kostenki14    Yoruba Chimp 0.0195 0.00434   4.50
    ##  3 Altai Vindija GoyetQ116-1   Yoruba Chimp 0.0312 0.00510   6.11
    ##  4 Altai Vindija KremsWA3      Yoruba Chimp 0.0179 0.00840   2.13
    ##  5 Altai Vindija Vestonice16   Yoruba Chimp 0.0210 0.00498   4.22
    ##  6 Altai Vindija Ostuni1       Yoruba Chimp 0.0163 0.00659   2.48
    ##  7 Altai Vindija Malta1        Yoruba Chimp 0.0256 0.0045    5.69
    ##  8 Altai Vindija ElMiron       Yoruba Chimp 0.0242 0.00533   4.54
    ##  9 Altai Vindija AfontovaGora3 Yoruba Chimp 0.0192 0.00740   2.60
    ## 10 Altai Vindija Villabruna    Yoruba Chimp 0.0200 0.00467   4.27
    ## # … with 34 more rows
…
